Aula4/Parte4/simulation/qsim/FreqDivider_Demo.msim.vcd
$comment
	File created using the following command:
		vcd file FreqDivider_Demo.msim.vcd -direction
$end
$date
	Mon Mar 13 22:13:59 2017
$end
$version
	ModelSim Version 10.4b
$end
$timescale
	1ps
$end

$scope module FreqDivider_vlg_vec_tst $end
$var reg 1 ! clkIn $end
$var reg 32 " k [31:0] $end
$var wire 1 # clkOut $end

$scope module i1 $end
$var wire 1 $ gnd $end
$var wire 1 % vcc $end
$var wire 1 & unknown $end
$var tri1 1 ' devclrn $end
$var tri1 1 ( devpor $end
$var tri1 1 ) devoe $end
$var wire 1 * clkOut~output_o $end
$var wire 1 + clkIn~input_o $end
$var wire 1 , k[1]~input_o $end
$var wire 1 - Add2~0_combout $end
$var wire 1 . k[2]~input_o $end
$var wire 1 / Add2~1 $end
$var wire 1 0 Add2~2_combout $end
$var wire 1 1 s_counter[0]~32_combout $end
$var wire 1 2 k[0]~input_o $end
$var wire 1 3 Add1~1 $end
$var wire 1 4 Add1~2_combout $end
$var wire 1 5 Add1~0_combout $end
$var wire 1 6 Equal0~0_combout $end
$var wire 1 7 s_counter[1]~35 $end
$var wire 1 8 s_counter[2]~36_combout $end
$var wire 1 9 s_counter[2]~37 $end
$var wire 1 : s_counter[3]~38_combout $end
$var wire 1 ; k[3]~input_o $end
$var wire 1 < Add1~3 $end
$var wire 1 = Add1~5 $end
$var wire 1 > Add1~6_combout $end
$var wire 1 ? Add1~4_combout $end
$var wire 1 @ Equal0~1_combout $end
$var wire 1 A s_counter[3]~39 $end
$var wire 1 B s_counter[4]~40_combout $end
$var wire 1 C s_counter[4]~41 $end
$var wire 1 D s_counter[5]~42_combout $end
$var wire 1 E k[5]~input_o $end
$var wire 1 F k[4]~input_o $end
$var wire 1 G Add1~7 $end
$var wire 1 H Add1~9 $end
$var wire 1 I Add1~10_combout $end
$var wire 1 J Add1~8_combout $end
$var wire 1 K Equal0~2_combout $end
$var wire 1 L s_counter[5]~43 $end
$var wire 1 M s_counter[6]~44_combout $end
$var wire 1 N s_counter[6]~45 $end
$var wire 1 O s_counter[7]~46_combout $end
$var wire 1 P k[7]~input_o $end
$var wire 1 Q k[6]~input_o $end
$var wire 1 R Add1~11 $end
$var wire 1 S Add1~13 $end
$var wire 1 T Add1~14_combout $end
$var wire 1 U Add1~12_combout $end
$var wire 1 V Equal0~3_combout $end
$var wire 1 W Equal0~4_combout $end
$var wire 1 X s_counter[7]~47 $end
$var wire 1 Y s_counter[8]~48_combout $end
$var wire 1 Z s_counter[8]~49 $end
$var wire 1 [ s_counter[9]~50_combout $end
$var wire 1 \ k[9]~input_o $end
$var wire 1 ] k[8]~input_o $end
$var wire 1 ^ Add1~15 $end
$var wire 1 _ Add1~17 $end
$var wire 1 ` Add1~18_combout $end
$var wire 1 a Add1~16_combout $end
$var wire 1 b Equal0~5_combout $end
$var wire 1 c s_counter[9]~51 $end
$var wire 1 d s_counter[10]~52_combout $end
$var wire 1 e s_counter[10]~53 $end
$var wire 1 f s_counter[11]~54_combout $end
$var wire 1 g k[11]~input_o $end
$var wire 1 h k[10]~input_o $end
$var wire 1 i Add1~19 $end
$var wire 1 j Add1~21 $end
$var wire 1 k Add1~22_combout $end
$var wire 1 l Add1~20_combout $end
$var wire 1 m Equal0~6_combout $end
$var wire 1 n s_counter[11]~55 $end
$var wire 1 o s_counter[12]~56_combout $end
$var wire 1 p s_counter[12]~57 $end
$var wire 1 q s_counter[13]~58_combout $end
$var wire 1 r k[13]~input_o $end
$var wire 1 s k[12]~input_o $end
$var wire 1 t Add1~23 $end
$var wire 1 u Add1~25 $end
$var wire 1 v Add1~26_combout $end
$var wire 1 w Add1~24_combout $end
$var wire 1 x Equal0~7_combout $end
$var wire 1 y s_counter[13]~59 $end
$var wire 1 z s_counter[14]~60_combout $end
$var wire 1 { s_counter[14]~61 $end
$var wire 1 | s_counter[15]~62_combout $end
$var wire 1 } k[15]~input_o $end
$var wire 1 ~ k[14]~input_o $end
$var wire 1 !! Add1~27 $end
$var wire 1 "! Add1~29 $end
$var wire 1 #! Add1~30_combout $end
$var wire 1 $! Add1~28_combout $end
$var wire 1 %! Equal0~8_combout $end
$var wire 1 &! Equal0~9_combout $end
$var wire 1 '! s_counter[15]~63 $end
$var wire 1 (! s_counter[16]~64_combout $end
$var wire 1 )! s_counter[16]~65 $end
$var wire 1 *! s_counter[17]~66_combout $end
$var wire 1 +! k[17]~input_o $end
$var wire 1 ,! k[16]~input_o $end
$var wire 1 -! Add1~31 $end
$var wire 1 .! Add1~33 $end
$var wire 1 /! Add1~34_combout $end
$var wire 1 0! Add1~32_combout $end
$var wire 1 1! Equal0~10_combout $end
$var wire 1 2! s_counter[17]~67 $end
$var wire 1 3! s_counter[18]~68_combout $end
$var wire 1 4! s_counter[18]~69 $end
$var wire 1 5! s_counter[19]~70_combout $end
$var wire 1 6! k[19]~input_o $end
$var wire 1 7! k[18]~input_o $end
$var wire 1 8! Add1~35 $end
$var wire 1 9! Add1~37 $end
$var wire 1 :! Add1~38_combout $end
$var wire 1 ;! Add1~36_combout $end
$var wire 1 <! Equal0~11_combout $end
$var wire 1 =! s_counter[19]~71 $end
$var wire 1 >! s_counter[20]~72_combout $end
$var wire 1 ?! s_counter[20]~73 $end
$var wire 1 @! s_counter[21]~74_combout $end
$var wire 1 A! k[21]~input_o $end
$var wire 1 B! k[20]~input_o $end
$var wire 1 C! Add1~39 $end
$var wire 1 D! Add1~41 $end
$var wire 1 E! Add1~42_combout $end
$var wire 1 F! Add1~40_combout $end
$var wire 1 G! Equal0~12_combout $end
$var wire 1 H! s_counter[21]~75 $end
$var wire 1 I! s_counter[22]~76_combout $end
$var wire 1 J! s_counter[22]~77 $end
$var wire 1 K! s_counter[23]~78_combout $end
$var wire 1 L! k[23]~input_o $end
$var wire 1 M! k[22]~input_o $end
$var wire 1 N! Add1~43 $end
$var wire 1 O! Add1~45 $end
$var wire 1 P! Add1~46_combout $end
$var wire 1 Q! Add1~44_combout $end
$var wire 1 R! Equal0~13_combout $end
$var wire 1 S! Equal0~14_combout $end
$var wire 1 T! s_counter[23]~79 $end
$var wire 1 U! s_counter[24]~80_combout $end
$var wire 1 V! s_counter[24]~81 $end
$var wire 1 W! s_counter[25]~82_combout $end
$var wire 1 X! k[25]~input_o $end
$var wire 1 Y! k[24]~input_o $end
$var wire 1 Z! Add1~47 $end
$var wire 1 [! Add1~49 $end
$var wire 1 \! Add1~50_combout $end
$var wire 1 ]! Add1~48_combout $end
$var wire 1 ^! Equal0~15_combout $end
$var wire 1 _! s_counter[25]~83 $end
$var wire 1 `! s_counter[26]~84_combout $end
$var wire 1 a! s_counter[26]~85 $end
$var wire 1 b! s_counter[27]~86_combout $end
$var wire 1 c! k[27]~input_o $end
$var wire 1 d! k[26]~input_o $end
$var wire 1 e! Add1~51 $end
$var wire 1 f! Add1~53 $end
$var wire 1 g! Add1~54_combout $end
$var wire 1 h! Add1~52_combout $end
$var wire 1 i! Equal0~16_combout $end
$var wire 1 j! s_counter[27]~87 $end
$var wire 1 k! s_counter[28]~88_combout $end
$var wire 1 l! s_counter[28]~89 $end
$var wire 1 m! s_counter[29]~90_combout $end
$var wire 1 n! k[29]~input_o $end
$var wire 1 o! k[28]~input_o $end
$var wire 1 p! Add1~55 $end
$var wire 1 q! Add1~57 $end
$var wire 1 r! Add1~58_combout $end
$var wire 1 s! Add1~56_combout $end
$var wire 1 t! Equal0~17_combout $end
$var wire 1 u! s_counter[29]~91 $end
$var wire 1 v! s_counter[30]~92_combout $end
$var wire 1 w! s_counter[30]~93 $end
$var wire 1 x! s_counter[31]~94_combout $end
$var wire 1 y! k[31]~input_o $end
$var wire 1 z! k[30]~input_o $end
$var wire 1 {! Add1~59 $end
$var wire 1 |! Add1~61 $end
$var wire 1 }! Add1~62_combout $end
$var wire 1 ~! Add1~60_combout $end
$var wire 1 !" Equal0~18_combout $end
$var wire 1 "" Equal0~19_combout $end
$var wire 1 #" Equal0~20_combout $end
$var wire 1 $" s_counter[0]~33 $end
$var wire 1 %" s_counter[1]~34_combout $end
$var wire 1 &" clkOut~0_combout $end
$var wire 1 '" Add2~3 $end
$var wire 1 (" Add2~4_combout $end
$var wire 1 )" Add2~5 $end
$var wire 1 *" Add2~6_combout $end
$var wire 1 +" clkOut~1_combout $end
$var wire 1 ," Add2~7 $end
$var wire 1 -" Add2~8_combout $end
$var wire 1 ." Add2~9 $end
$var wire 1 /" Add2~10_combout $end
$var wire 1 0" clkOut~2_combout $end
$var wire 1 1" Add2~11 $end
$var wire 1 2" Add2~12_combout $end
$var wire 1 3" Add2~13 $end
$var wire 1 4" Add2~14_combout $end
$var wire 1 5" clkOut~3_combout $end
$var wire 1 6" clkOut~4_combout $end
$var wire 1 7" Add2~15 $end
$var wire 1 8" Add2~16_combout $end
$var wire 1 9" Add2~17 $end
$var wire 1 :" Add2~18_combout $end
$var wire 1 ;" clkOut~5_combout $end
$var wire 1 <" Add2~19 $end
$var wire 1 =" Add2~20_combout $end
$var wire 1 >" Add2~21 $end
$var wire 1 ?" Add2~22_combout $end
$var wire 1 @" clkOut~6_combout $end
$var wire 1 A" Add2~23 $end
$var wire 1 B" Add2~24_combout $end
$var wire 1 C" Add2~25 $end
$var wire 1 D" Add2~26_combout $end
$var wire 1 E" clkOut~7_combout $end
$var wire 1 F" Add2~27 $end
$var wire 1 G" Add2~28_combout $end
$var wire 1 H" Add2~29 $end
$var wire 1 I" Add2~30_combout $end
$var wire 1 J" clkOut~8_combout $end
$var wire 1 K" clkOut~9_combout $end
$var wire 1 L" Add2~31 $end
$var wire 1 M" Add2~32_combout $end
$var wire 1 N" Add2~33 $end
$var wire 1 O" Add2~34_combout $end
$var wire 1 P" clkOut~10_combout $end
$var wire 1 Q" Add2~35 $end
$var wire 1 R" Add2~36_combout $end
$var wire 1 S" Add2~37 $end
$var wire 1 T" Add2~38_combout $end
$var wire 1 U" clkOut~11_combout $end
$var wire 1 V" Add2~39 $end
$var wire 1 W" Add2~40_combout $end
$var wire 1 X" Add2~41 $end
$var wire 1 Y" Add2~42_combout $end
$var wire 1 Z" clkOut~12_combout $end
$var wire 1 [" Add2~43 $end
$var wire 1 \" Add2~44_combout $end
$var wire 1 ]" Add2~45 $end
$var wire 1 ^" Add2~46_combout $end
$var wire 1 _" clkOut~13_combout $end
$var wire 1 `" clkOut~14_combout $end
$var wire 1 a" Add2~47 $end
$var wire 1 b" Add2~48_combout $end
$var wire 1 c" Add2~49 $end
$var wire 1 d" Add2~50_combout $end
$var wire 1 e" clkOut~15_combout $end
$var wire 1 f" Add2~51 $end
$var wire 1 g" Add2~52_combout $end
$var wire 1 h" Add2~53 $end
$var wire 1 i" Add2~54_combout $end
$var wire 1 j" clkOut~16_combout $end
$var wire 1 k" Add2~55 $end
$var wire 1 l" Add2~56_combout $end
$var wire 1 m" Add2~57 $end
$var wire 1 n" Add2~58_combout $end
$var wire 1 o" clkOut~17_combout $end
$var wire 1 p" Add2~59 $end
$var wire 1 q" Add2~60_combout $end
$var wire 1 r" Add2~61 $end
$var wire 1 s" Add2~62_combout $end
$var wire 1 t" clkOut~18_combout $end
$var wire 1 u" clkOut~19_combout $end
$var wire 1 v" clkOut~20_combout $end
$var wire 1 w" clkOut~21_combout $end
$var wire 1 x" clkOut~reg0_q $end
$var wire 1 y" s_counter [31] $end
$var wire 1 z" s_counter [30] $end
$var wire 1 {" s_counter [29] $end
$var wire 1 |" s_counter [28] $end
$var wire 1 }" s_counter [27] $end
$var wire 1 ~" s_counter [26] $end
$var wire 1 !# s_counter [25] $end
$var wire 1 "# s_counter [24] $end
$var wire 1 ## s_counter [23] $end
$var wire 1 $# s_counter [22] $end
$var wire 1 %# s_counter [21] $end
$var wire 1 &# s_counter [20] $end
$var wire 1 '# s_counter [19] $end
$var wire 1 (# s_counter [18] $end
$var wire 1 )# s_counter [17] $end
$var wire 1 *# s_counter [16] $end
$var wire 1 +# s_counter [15] $end
$var wire 1 ,# s_counter [14] $end
$var wire 1 -# s_counter [13] $end
$var wire 1 .# s_counter [12] $end
$var wire 1 /# s_counter [11] $end
$var wire 1 0# s_counter [10] $end
$var wire 1 1# s_counter [9] $end
$var wire 1 2# s_counter [8] $end
$var wire 1 3# s_counter [7] $end
$var wire 1 4# s_counter [6] $end
$var wire 1 5# s_counter [5] $end
$var wire 1 6# s_counter [4] $end
$var wire 1 7# s_counter [3] $end
$var wire 1 8# s_counter [2] $end
$var wire 1 9# s_counter [1] $end
$var wire 1 :# s_counter [0] $end
$upscope $end
$upscope $end
$enddefinitions $end
#0
$dumpvars
0!
b0 "
0#
0$
1%
x&
1'
1(
1)
0*
0+
0,
1-
0.
0/
10
11
02
03
14
15
06
17
08
09
0:
0;
1<
0=
1>
1?
0@
1A
0B
0C
0D
0E
0F
1G
0H
1I
1J
0K
1L
0M
0N
0O
0P
0Q
1R
0S
1T
1U
0V
0W
1X
0Y
0Z
0[
0\
0]
1^
0_
1`
1a
0b
1c
0d
0e
0f
0g
0h
1i
0j
1k
1l
0m
1n
0o
0p
0q
0r
0s
1t
0u
1v
1w
0x
1y
0z
0{
0|
0}
0~
1!!
0"!
1#!
1$!
0%!
0&!
1'!
0(!
0)!
0*!
0+!
0,!
1-!
0.!
1/!
10!
01!
12!
03!
04!
05!
06!
07!
18!
09!
1:!
1;!
0<!
1=!
0>!
0?!
0@!
0A!
0B!
1C!
0D!
1E!
1F!
0G!
1H!
0I!
0J!
0K!
0L!
0M!
1N!
0O!
1P!
1Q!
0R!
0S!
1T!
0U!
0V!
0W!
0X!
0Y!
1Z!
0[!
1\!
1]!
0^!
1_!
0`!
0a!
0b!
0c!
0d!
1e!
0f!
1g!
1h!
0i!
1j!
0k!
0l!
0m!
0n!
0o!
1p!
0q!
1r!
1s!
0t!
1u!
0v!
0w!
0x!
0y!
0z!
1{!
0|!
1}!
1~!
0!"
0""
0#"
0$"
0%"
0&"
1'"
1("
0)"
1*"
0+"
1,"
1-"
0."
1/"
00"
11"
12"
03"
14"
05"
06"
17"
18"
09"
1:"
0;"
1<"
1="
0>"
1?"
0@"
1A"
1B"
0C"
1D"
0E"
1F"
1G"
0H"
1I"
0J"
0K"
1L"
1M"
0N"
1O"
0P"
1Q"
1R"
0S"
1T"
0U"
1V"
1W"
0X"
1Y"
0Z"
1["
1\"
0]"
1^"
0_"
0`"
1a"
1b"
0c"
1d"
0e"
1f"
1g"
0h"
1i"
0j"
1k"
1l"
0m"
1n"
0o"
1p"
1q"
0r"
1s"
0t"
0u"
0v"
0w"
0x"
0:#
09#
08#
07#
06#
05#
04#
03#
02#
01#
00#
0/#
0.#
0-#
0,#
0+#
0*#
0)#
0(#
0'#
0&#
0%#
0$#
0##
0"#
0!#
0~"
0}"
0|"
0{"
0z"
0y"
$end
#10000
1!
b10 "
b11 "
12
1,
1+
13
05
0<
04
1/
0-
14
16
1=
0?
0'"
00
06
0G
0>
1)"
0("
1&"
1H
0J
1@
0,"
0*"
0R
0I
1."
0-"
1+"
1S
0U
1K
01"
0/"
0^
0T
13"
02"
10"
1_
0a
1V
07"
04"
0i
0`
19"
08"
15"
1j
0l
1b
0<"
0:"
16"
0t
0k
1>"
0="
1;"
1u
0w
1m
0A"
0?"
0!!
0v
1C"
0B"
1@"
1"!
0$!
1x
0F"
0D"
0-!
0#!
1H"
0G"
1E"
1.!
00!
1%!
0L"
0I"
08!
0/!
1&!
1N"
0M"
1J"
19!
0;!
11!
0Q"
0O"
1K"
0C!
0:!
1S"
0R"
1P"
1D!
0F!
1<!
0V"
0T"
0N!
0E!
1X"
0W"
1U"
1O!
0Q!
1G!
0["
0Y"
0Z!
0P!
1]"
0\"
1Z"
1[!
0]!
1R!
0a"
0^"
0e!
0\!
1S!
1c"
0b"
1_"
1f!
0h!
1^!
0f"
0d"
1`"
0p!
0g!
1h"
0g"
1e"
1q!
0s!
1i!
0k"
0i"
0{!
0r!
1m"
0l"
1j"
1|!
0~!
1t!
0p"
0n"
0}!
1r"
0q"
1o"
1!"
0s"
1""
1t"
1u"
1v"
1w"
1:#
0&"
1$"
01
06"
1%"
0v"
0w"
#20000
0!
0+
#30000
1!
1+
19#
0:#
07
16
0$"
0%"
11
1W
17
18
1%"
1#"
08
#40000
0!
0+
#50000
1!
1+
09#
1&"
06
0%"
16"
0W
1v"
0#"
1w"
#60000
0!
0+
#70000
1!
1+
1:#
1x"
1*
0&"
1$"
1#
01
06"
1%"
0v"
#80000
0!
0+
#90000
1!
1+
19#
0:#
07
16
0$"
0%"
11
1W
17
18
1%"
1#"
08
0w"
#100000
0!
0+
#110000
1!
1+
09#
0x"
0*
1&"
06
0#
0%"
16"
0W
1v"
0#"
1w"
#120000
0!
0+
#130000
1!
1+
1:#
1x"
1*
0&"
1$"
1#
01
06"
1%"
0v"
#140000
0!
0+
#150000
1!
1+
19#
0:#
07
16
0$"
0%"
11
1W
17
18
1%"
1#"
08
0w"
#160000
0!
0+
#170000
1!
1+
09#
0x"
0*
1&"
06
0#
0%"
16"
0W
1v"
0#"
1w"
#180000
0!
0+
#190000
1!
1+
1:#
1x"
1*
0&"
1$"
1#
01
06"
1%"
0v"
#200000
0!
0+
#210000
1!
1+
19#
0:#
07
16
0$"
0%"
11
1W
17
18
1%"
1#"
08
0w"
#220000
0!
0+
#230000
1!
1+
09#
0x"
0*
1&"
06
0#
0%"
16"
0W
1v"
0#"
1w"
#240000
0!
0+
#250000
1!
1+
1:#
1x"
1*
0&"
1$"
1#
01
06"
1%"
0v"
#260000
0!
0+
#270000
1!
1+
19#
0:#
07
16
0$"
0%"
11
1W
17
18
1%"
1#"
08
0w"
#280000
0!
0+
#290000
1!
1+
09#
0x"
0*
1&"
06
0#
0%"
16"
0W
1v"
0#"
1w"
#300000
0!
0+
#310000
1!
1+
1:#
1x"
1*
0&"
1$"
1#
01
06"
1%"
0v"
#320000
0!
0+
#330000
1!
1+
19#
0:#
07
16
0$"
0%"
11
1W
17
18
1%"
1#"
08
0w"
#340000
0!
0+
#350000
1!
1+
09#
0x"
0*
1&"
06
0#
0%"
16"
0W
1v"
0#"
1w"
#360000
0!
0+
#370000
1!
1+
1:#
1x"
1*
0&"
1$"
1#
01
06"
1%"
0v"
#380000
0!
0+
#390000
1!
1+
19#
0:#
07
16
0$"
0%"
11
1W
17
18
1%"
1#"
08
0w"
#400000
0!
0+
#410000
1!
1+
09#
0x"
0*
1&"
06
0#
0%"
16"
0W
1v"
0#"
1w"
#420000
0!
0+
#430000
1!
1+
1:#
1x"
1*
0&"
1$"
1#
01
06"
1%"
0v"
#440000
0!
0+
#450000
1!
1+
19#
0:#
07
16
0$"
0%"
11
1W
17
18
1%"
1#"
08
0w"
#460000
0!
0+
#470000
1!
1+
09#
0x"
0*
1&"
06
0#
0%"
16"
0W
1v"
0#"
1w"
#480000
0!
0+
#490000
1!
1+
1:#
1x"
1*
0&"
1$"
1#
01
06"
1%"
0v"
#500000
0!
0+
#510000
1!
1+
19#
0:#
07
16
0$"
0%"
11
1W
17
18
1%"
1#"
08
0w"
#520000
0!
0+
#530000
1!
1+
09#
0x"
0*
1&"
06
0#
0%"
16"
0W
1v"
0#"
1w"
#540000
0!
0+
#550000
1!
1+
1:#
1x"
1*
0&"
1$"
1#
01
06"
1%"
0v"
#560000
0!
0+
#570000
1!
1+
19#
0:#
07
16
0$"
0%"
11
1W
17
18
1%"
1#"
08
0w"
#580000
0!
0+
#590000
1!
1+
09#
0x"
0*
1&"
06
0#
0%"
16"
0W
1v"
0#"
1w"
#600000
0!
0+
#610000
1!
1+
1:#
1x"
1*
0&"
1$"
1#
01
06"
1%"
0v"
#620000
0!
0+
#630000
1!
1+
19#
0:#
07
16
0$"
0%"
11
1W
17
18
1%"
1#"
08
0w"
#640000
0!
0+
#650000
1!
1+
09#
0x"
0*
1&"
06
0#
0%"
16"
0W
1v"
0#"
1w"
#660000
0!
0+
#670000
1!
1+
1:#
1x"
1*
0&"
1$"
1#
01
06"
1%"
0v"
#680000
0!
0+
#690000
1!
1+
19#
0:#
07
16
0$"
0%"
11
1W
17
18
1%"
1#"
08
0w"
#700000
0!
0+
#710000
1!
1+
09#
0x"
0*
1&"
06
0#
0%"
16"
0W
1v"
0#"
1w"
#720000
0!
0+
#730000
1!
1+
1:#
1x"
1*
0&"
1$"
1#
01
06"
1%"
0v"
#740000
0!
0+
#750000
1!
1+
19#
0:#
07
16
0$"
0%"
11
1W
17
18
1%"
1#"
08
0w"
#760000
0!
0+
#770000
1!
1+
09#
0x"
0*
1&"
06
0#
0%"
16"
0W
1v"
0#"
1w"
#780000
0!
0+
#790000
1!
1+
1:#
1x"
1*
0&"
1$"
1#
01
06"
1%"
0v"
#800000
0!
0+
#810000
1!
1+
19#
0:#
07
16
0$"
0%"
11
1W
17
18
1%"
1#"
08
0w"
#820000
0!
0+
#830000
1!
1+
09#
0x"
0*
1&"
06
0#
0%"
16"
0W
1v"
0#"
1w"
#840000
0!
0+
#850000
1!
1+
1:#
1x"
1*
0&"
1$"
1#
01
06"
1%"
0v"
#860000
0!
0+
#870000
1!
1+
19#
0:#
07
16
0$"
0%"
11
1W
17
18
1%"
1#"
08
0w"
#880000
0!
0+
#890000
1!
1+
09#
0x"
0*
1&"
06
0#
0%"
16"
0W
1v"
0#"
1w"
#900000
0!
0+
#910000
1!
1+
1:#
1x"
1*
0&"
1$"
1#
01
06"
1%"
0v"
#920000
0!
0+
#930000
1!
1+
19#
0:#
07
16
0$"
0%"
11
1W
17
18
1%"
1#"
08
0w"
#940000
0!
0+
#950000
1!
1+
09#
0x"
0*
1&"
06
0#
0%"
16"
0W
1v"
0#"
1w"
#960000
0!
0+
#970000
b10000000000000000000000000000011 "
b11000000000000000000000000000011 "
b11100000000000000000000000000011 "
b11110000000000000000000000000011 "
b11111000000000000000000000000011 "
b11111100000000000000000000000011 "
b11111110000000000000000000000011 "
b11111111000000000000000000000011 "
b11111111100000000000000000000011 "
b11111111110000000000000000000011 "
b11111111111000000000000000000011 "
b11111111111100000000000000000011 "
b11111111111110000000000000000011 "
b11111111111111000000000000000011 "
b11111111111111100000000000000011 "
b11111111111111110000000000000011 "
b11111111111111111000000000000011 "
b11111111111111111100000000000011 "
b11111111111111111110000000000011 "
b11111111111111111111000000000011 "
b11111111111111111111100000000011 "
b11111111111111111111110000000011 "
b11111111111111111111111000000011 "
b11111111111111111111111100000011 "
b11111111111111111111111110000011 "
b11111111111111111111111111000011 "
b11111111111111111111111111100011 "
b11111111111111111111111111110011 "
b11111111111111111111111111111011 "
b11111111111111111111111111111111 "
1!
1.
1;
1F
1E
1Q
1P
1]
1\
1h
1g
1s
1r
1~
1}
1,!
1+!
17!
16!
1B!
1A!
1M!
1L!
1Y!
1X!
1d!
1c!
1o!
1n!
1z!
1y!
1+
1?
10
1("
1>
1*"
1J
1-"
1I
1/"
1U
12"
1T
14"
1a
18"
1`
1:"
1l
1="
1k
1?"
1w
1B"
1v
1D"
1$!
1G"
1#!
1I"
10!
1M"
1/!
1O"
1;!
1R"
1:!
1T"
1F!
1W"
1E!
1Y"
1Q!
1\"
1P!
1^"
1]!
1b"
1\!
1d"
1h!
1g"
1g!
1i"
1s!
1l"
1r!
1n"
1~!
1q"
1}!
0@
0&"
0+"
0K
00"
0V
05"
0b
0;"
0m
0@"
0x
0E"
0%!
0J"
01!
0P"
0<!
0U"
0G!
0Z"
0R!
0_"
0^!
0e"
0i!
0j"
0t!
0o"
0!"
0t"
06"
0&!
0K"
0S!
0`"
0""
0u"
0v"
0w"
1:#
1x"
1*
1$"
1#
01
1w"
1%"
#980000
0!
0+
#990000
1!
1+
19#
0:#
1&"
07
16
0$"
0%"
11
17
18
1%"
08
