Aula8/Parte2/simulation/qsim/DrinksMachine.msim.vcd
$comment
	File created using the following command:
		vcd file DrinksMachine.msim.vcd -direction
$end
$date
	Fri Apr 07 14:56:31 2017
$end
$version
	ModelSim Version 10.4b
$end
$timescale
	1ps
$end

$scope module DrinksFSM_vlg_vec_tst $end
$var reg 1 ! clk $end
$var reg 1 " coin20 $end
$var reg 1 # coin50 $end
$var reg 1 $ reset $end
$var wire 1 % drink $end

$scope module i1 $end
$var wire 1 & gnd $end
$var wire 1 ' vcc $end
$var wire 1 ( unknown $end
$var tri1 1 ) devclrn $end
$var tri1 1 * devpor $end
$var tri1 1 + devoe $end
$var wire 1 , drink~output_o $end
$var wire 1 - clk~input_o $end
$var wire 1 . coin50~input_o $end
$var wire 1 / coin20~input_o $end
$var wire 1 0 reset~input_o $end
$var wire 1 1 s_nextState~0_combout $end
$var wire 1 2 s_nextState.initialState_137~combout $end
$var wire 1 3 s_currentState~13_combout $end
$var wire 1 4 s_currentState.initialState~q $end
$var wire 1 5 Selector8~0_combout $end
$var wire 1 6 s_nextState.State20_129~combout $end
$var wire 1 7 s_currentState~12_combout $end
$var wire 1 8 s_currentState.State20~q $end
$var wire 1 9 Selector6~0_combout $end
$var wire 1 : s_nextState.State40_121~combout $end
$var wire 1 ; s_currentState~9_combout $end
$var wire 1 < s_currentState.State40~q $end
$var wire 1 = Selector4~0_combout $end
$var wire 1 > s_nextState.State5060_113~combout $end
$var wire 1 ? s_currentState~10_combout $end
$var wire 1 @ s_currentState.State5060~q $end
$var wire 1 A Selector1~0_combout $end
$var wire 1 B Selector2~0_combout $end
$var wire 1 C s_nextState.State7080_105~combout $end
$var wire 1 D s_currentState~11_combout $end
$var wire 1 E s_currentState.State7080~q $end
$var wire 1 F Selector1~1_combout $end
$var wire 1 G s_nextState.finalState_97~combout $end
$var wire 1 H s_currentState~8_combout $end
$var wire 1 I s_currentState.finalState~q $end
$upscope $end
$upscope $end
$enddefinitions $end
#0
$dumpvars
0!
0"
0#
1$
0%
0&
1'
x(
1)
1*
1+
0,
0-
0.
0/
10
01
12
03
04
05
06
07
08
09
0:
0;
0<
0=
0>
0?
0@
0A
0B
0C
0D
0E
0F
0G
0H
0I
$end
#20000
1!
1-
#40000
0!
0-
#60000
1!
1-
#80000
0!
0-
#90000
1"
1/
15
11
16
02
#100000
1!
1-
#110000
1#
0"
1.
0/
1=
05
1>
06
#120000
0!
0-
#140000
0#
1!
0.
1-
0=
01
0>
12
#160000
0$
0!
00
0-
#180000
1"
1!
1/
1-
15
11
16
02
17
13
#200000
0!
0-
#220000
1!
1-
18
14
19
05
1:
06
1;
07
#240000
0!
0-
#260000
0"
1!
0/
1-
09
01
0:
12
0;
03
1<
08
#280000
0!
0-
#300000
1!
1-
0<
04
#320000
1"
0!
1/
0-
15
11
16
02
17
13
#340000
1!
1-
18
14
19
05
1:
06
1;
07
#360000
0!
0-
#380000
0"
1!
0/
1-
09
01
0:
12
0;
03
1<
08
#400000
0!
0-
#420000
1!
1-
0<
04
#430000
1#
1.
1=
11
1>
02
1?
13
#440000
0!
0-
#460000
1!
1-
1@
14
1A
0=
1F
0>
1G
0?
1H
#480000
0!
0-
#500000
1!
1-
0@
1I
1,
0A
1%
0F
#510000
0#
0.
01
#520000
0!
0-
#540000
1!
1-
#560000
0!
0-
#580000
1!
1-
#600000
0!
0-
#620000
1!
1-
#640000
0!
0-
#660000
1!
1-
#680000
0!
0-
#700000
1!
1-
#720000
0!
0-
#740000
1!
1-
#760000
0!
0-
#780000
1!
1-
#800000
0!
0-
#820000
1!
1-
#840000
0!
0-
#860000
1!
1-
#880000
0!
0-
#900000
1!
1-
#920000
0!
0-
#940000
1!
1-
#960000
0!
0-
#980000
1!
1-
