Aula3/Parte1/simulation/qsim/AdderDemo.msim.vcd
$comment
	File created using the following command:
		vcd file AdderDemo.msim.vcd -direction
$end
$date
	Fri Mar 03 13:40:09 2017
$end
$version
	ModelSim Version 10.4b
$end
$timescale
	1ps
$end

$scope module Adder4_vlg_vec_tst $end
$var reg 4 ! a [3:0] $end
$var reg 4 " b [3:0] $end
$var reg 1 # cin $end
$var wire 1 $ cout $end
$var wire 1 % s [3] $end
$var wire 1 & s [2] $end
$var wire 1 ' s [1] $end
$var wire 1 ( s [0] $end

$scope module i1 $end
$var wire 1 ) gnd $end
$var wire 1 * vcc $end
$var wire 1 + unknown $end
$var tri1 1 , devclrn $end
$var tri1 1 - devpor $end
$var tri1 1 . devoe $end
$var wire 1 / cin~input_o $end
$var wire 1 0 s[0]~output_o $end
$var wire 1 1 s[1]~output_o $end
$var wire 1 2 s[2]~output_o $end
$var wire 1 3 s[3]~output_o $end
$var wire 1 4 cout~output_o $end
$var wire 1 5 a[0]~input_o $end
$var wire 1 6 b[0]~input_o $end
$var wire 1 7 bit0|s~0_combout $end
$var wire 1 8 a[1]~input_o $end
$var wire 1 9 b[1]~input_o $end
$var wire 1 : bit1|s~0_combout $end
$var wire 1 ; a[2]~input_o $end
$var wire 1 < b[2]~input_o $end
$var wire 1 = bit1|cout~0_combout $end
$var wire 1 > bit2|s~0_combout $end
$var wire 1 ? b[3]~input_o $end
$var wire 1 @ a[3]~input_o $end
$var wire 1 A bit3|s~0_combout $end
$var wire 1 B bit3|s~combout $end
$upscope $end
$upscope $end
$enddefinitions $end
#0
$dumpvars
b0 !
b0 "
0#
0$
0(
0'
0&
0%
0)
1*
x+
1,
1-
1.
0/
00
01
02
03
04
05
06
07
08
09
0:
0;
0<
0=
0>
0?
0@
0A
0B
$end
#120000
b1000 !
b1100 !
b1110 !
b1111 !
b1000 "
b1100 "
b1110 "
b1111 "
16
19
1<
1?
15
18
1;
1@
1=
1:
1B
13
11
1'
1%
1>
12
1&
#260000
b111 !
b11 !
b1 !
b0 !
b111 "
b11 "
b1 "
b0 "
06
09
0<
0?
05
08
0;
0@
0=
0:
0B
03
01
0'
0%
0>
02
0&
#480000
b1000 !
b1100 !
b1110 !
b1111 !
15
18
1;
1@
1A
1:
17
1>
12
10
11
1'
1(
1&
1B
13
1%
#620000
b111 !
b11 !
b1 !
b0 !
05
08
0;
0@
0A
0:
07
0>
02
00
01
0'
0(
0&
0B
03
0%
#760000
b1000 !
b1010 !
18
1@
1A
1:
11
1'
1B
13
1%
#780000
b1000 "
b1100 "
1<
1?
1>
0B
03
12
1&
0%
#880000
b10 !
b0 !
b100 "
b0 "
0<
0?
08
0@
0A
0>
1B
0:
01
13
02
0&
1%
0'
0B
03
0%
