Aula4/Parte3/simulation/qsim/Counter_Demo.msim.vcd
$comment
	File created using the following command:
		vcd file Counter_Demo.msim.vcd -direction
$end
$date
	Fri Mar 10 13:38:03 2017
$end
$version
	ModelSim Version 10.4b
$end
$timescale
	1ps
$end

$scope module CounterDown4_vlg_vec_tst $end
$var reg 1 ! clk $end
$var wire 1 " count [3] $end
$var wire 1 # count [2] $end
$var wire 1 $ count [1] $end
$var wire 1 % count [0] $end

$scope module i1 $end
$var wire 1 & gnd $end
$var wire 1 ' vcc $end
$var wire 1 ( unknown $end
$var tri1 1 ) devclrn $end
$var tri1 1 * devpor $end
$var tri1 1 + devoe $end
$var wire 1 , count[0]~output_o $end
$var wire 1 - count[1]~output_o $end
$var wire 1 . count[2]~output_o $end
$var wire 1 / count[3]~output_o $end
$var wire 1 0 clk~input_o $end
$var wire 1 1 s_count[0]~0_combout $end
$var wire 1 2 Add0~0_combout $end
$var wire 1 3 Add0~1_combout $end
$var wire 1 4 Add0~2_combout $end
$var wire 1 5 s_count [3] $end
$var wire 1 6 s_count [2] $end
$var wire 1 7 s_count [1] $end
$var wire 1 8 s_count [0] $end
$upscope $end
$upscope $end
$enddefinitions $end
#0
$dumpvars
0!
0%
0$
0#
0"
0&
1'
x(
1)
1*
1+
0,
0-
0.
0/
00
11
12
13
14
08
07
06
05
$end
#10000
1!
10
15
16
17
18
1,
1-
1.
1/
1"
1#
1$
1%
01
#20000
0!
00
#30000
1!
10
08
0,
0%
02
11
#40000
0!
00
#50000
1!
10
07
18
1,
0-
0$
1%
01
#60000
0!
00
#70000
1!
10
08
0,
0%
03
12
11
#80000
0!
00
#90000
1!
10
06
17
18
1,
1-
0.
0#
1$
1%
01
#100000
0!
00
#110000
1!
10
08
0,
0%
02
11
#120000
0!
00
#130000
1!
10
07
18
1,
0-
0$
1%
01
#140000
0!
00
#150000
1!
10
08
0,
0%
04
13
12
11
#160000
0!
00
#170000
1!
10
05
16
17
18
1,
1-
1.
0/
0"
1#
1$
1%
01
#180000
0!
00
#190000
1!
10
08
0,
0%
02
11
#200000
0!
00
#210000
1!
10
07
18
1,
0-
0$
1%
01
#220000
0!
00
#230000
1!
10
08
0,
0%
03
12
11
#240000
0!
00
#250000
1!
10
06
17
18
1,
1-
0.
0#
1$
1%
01
#260000
0!
00
#270000
1!
10
08
0,
0%
02
11
#280000
0!
00
#290000
1!
10
07
18
1,
0-
0$
1%
01
#300000
0!
00
#310000
1!
10
08
0,
0%
14
13
12
11
#320000
0!
00
#330000
1!
10
15
16
17
18
1,
1-
1.
1/
1"
1#
1$
1%
01
#340000
0!
00
#350000
1!
10
08
0,
0%
02
11
#360000
0!
00
#370000
1!
10
07
18
1,
0-
0$
1%
01
#380000
0!
00
#390000
1!
10
08
0,
0%
03
12
11
#400000
0!
00
#410000
1!
10
06
17
18
1,
1-
0.
0#
1$
1%
01
#420000
0!
00
#430000
1!
10
08
0,
0%
02
11
#440000
0!
00
#450000
1!
10
07
18
1,
0-
0$
1%
01
#460000
0!
00
#470000
1!
10
08
0,
0%
04
13
12
11
#480000
0!
00
#490000
1!
10
05
16
17
18
1,
1-
1.
0/
0"
1#
1$
1%
01
#500000
0!
00
#510000
1!
10
08
0,
0%
02
11
#520000
0!
00
#530000
1!
10
07
18
1,
0-
0$
1%
01
#540000
0!
00
#550000
1!
10
08
0,
0%
03
12
11
#560000
0!
00
#570000
1!
10
06
17
18
1,
1-
0.
0#
1$
1%
01
#580000
0!
00
#590000
1!
10
08
0,
0%
02
11
#600000
0!
00
#610000
1!
10
07
18
1,
0-
0$
1%
01
#620000
0!
00
#630000
1!
10
08
0,
0%
14
13
12
11
#640000
0!
00
#650000
1!
10
15
16
17
18
1,
1-
1.
1/
1"
1#
1$
1%
01
#660000
0!
00
#670000
1!
10
08
0,
0%
02
11
#680000
0!
00
#690000
1!
10
07
18
1,
0-
0$
1%
01
#700000
0!
00
#710000
1!
10
08
0,
0%
03
12
11
#720000
0!
00
#730000
1!
10
06
17
18
1,
1-
0.
0#
1$
1%
01
#740000
0!
00
#750000
1!
10
08
0,
0%
02
11
#760000
0!
00
#770000
1!
10
07
18
1,
0-
0$
1%
01
#780000
0!
00
#790000
1!
10
08
0,
0%
04
13
12
11
#800000
0!
00
#810000
1!
10
05
16
17
18
1,
1-
1.
0/
0"
1#
1$
1%
01
#820000
0!
00
#830000
1!
10
08
0,
0%
02
11
#840000
0!
00
#850000
1!
10
07
18
1,
0-
0$
1%
01
#860000
0!
00
#870000
1!
10
08
0,
0%
03
12
11
#880000
0!
00
#890000
1!
10
06
17
18
1,
1-
0.
0#
1$
1%
01
#900000
0!
00
#910000
1!
10
08
0,
0%
02
11
#920000
0!
00
#930000
1!
10
07
18
1,
0-
0$
1%
01
#940000
0!
00
#950000
1!
10
08
0,
0%
14
13
12
11
#960000
0!
00
#970000
1!
10
15
16
17
18
1,
1-
1.
1/
1"
1#
1$
1%
01
#980000
0!
00
#990000
1!
10
08
0,
0%
02
11
