Aula5/Parte3/simulation/qsim/TimerN_Demo.msim.vcd
$comment
	File created using the following command:
		vcd file TimerN_Demo.msim.vcd -direction
$end
$date
	Fri Mar 17 15:50:11 2017
$end
$version
	ModelSim Version 10.4b
$end
$timescale
	1ps
$end

$scope module TimerN_vlg_vec_tst $end
$var reg 1 ! clk $end
$var reg 1 " enable $end
$var reg 1 # reset $end
$var reg 1 $ start $end
$var wire 1 % timerOut $end

$scope module i1 $end
$var wire 1 & gnd $end
$var wire 1 ' vcc $end
$var wire 1 ( unknown $end
$var tri1 1 ) devclrn $end
$var tri1 1 * devpor $end
$var tri1 1 + devoe $end
$var wire 1 , timerOut~output_o $end
$var wire 1 - clk~input_o $end
$var wire 1 . enable~input_o $end
$var wire 1 / s_count[0]~32_combout $end
$var wire 1 0 reset~input_o $end
$var wire 1 1 s_count[0]~33 $end
$var wire 1 2 s_count[1]~36_combout $end
$var wire 1 3 start~input_o $end
$var wire 1 4 s_count[1]~37 $end
$var wire 1 5 s_count[2]~38_combout $end
$var wire 1 6 Equal0~10_combout $end
$var wire 1 7 s_count[0]~35_combout $end
$var wire 1 8 s_count~34_combout $end
$var wire 1 9 s_count[2]~39 $end
$var wire 1 : s_count[3]~40_combout $end
$var wire 1 ; s_count[3]~41 $end
$var wire 1 < s_count[4]~42_combout $end
$var wire 1 = s_count[4]~43 $end
$var wire 1 > s_count[5]~44_combout $end
$var wire 1 ? Equal0~0_combout $end
$var wire 1 @ s_count[5]~45 $end
$var wire 1 A s_count[6]~46_combout $end
$var wire 1 B s_count[6]~47 $end
$var wire 1 C s_count[7]~48_combout $end
$var wire 1 D s_count[7]~49 $end
$var wire 1 E s_count[8]~50_combout $end
$var wire 1 F s_count[8]~51 $end
$var wire 1 G s_count[9]~52_combout $end
$var wire 1 H Equal0~1_combout $end
$var wire 1 I s_count[9]~53 $end
$var wire 1 J s_count[10]~54_combout $end
$var wire 1 K s_count[10]~55 $end
$var wire 1 L s_count[11]~56_combout $end
$var wire 1 M s_count[11]~57 $end
$var wire 1 N s_count[12]~58_combout $end
$var wire 1 O s_count[12]~59 $end
$var wire 1 P s_count[13]~60_combout $end
$var wire 1 Q Equal0~2_combout $end
$var wire 1 R s_count[13]~61 $end
$var wire 1 S s_count[14]~62_combout $end
$var wire 1 T s_count[14]~63 $end
$var wire 1 U s_count[15]~64_combout $end
$var wire 1 V s_count[15]~65 $end
$var wire 1 W s_count[16]~66_combout $end
$var wire 1 X s_count[16]~67 $end
$var wire 1 Y s_count[17]~68_combout $end
$var wire 1 Z Equal0~3_combout $end
$var wire 1 [ Equal0~4_combout $end
$var wire 1 \ s_count[17]~69 $end
$var wire 1 ] s_count[18]~70_combout $end
$var wire 1 ^ s_count[18]~71 $end
$var wire 1 _ s_count[19]~72_combout $end
$var wire 1 ` s_count[19]~73 $end
$var wire 1 a s_count[20]~74_combout $end
$var wire 1 b s_count[20]~75 $end
$var wire 1 c s_count[21]~76_combout $end
$var wire 1 d Equal0~5_combout $end
$var wire 1 e s_count[21]~77 $end
$var wire 1 f s_count[22]~78_combout $end
$var wire 1 g s_count[22]~79 $end
$var wire 1 h s_count[23]~80_combout $end
$var wire 1 i s_count[23]~81 $end
$var wire 1 j s_count[24]~82_combout $end
$var wire 1 k s_count[24]~83 $end
$var wire 1 l s_count[25]~84_combout $end
$var wire 1 m Equal0~6_combout $end
$var wire 1 n s_count[25]~85 $end
$var wire 1 o s_count[26]~86_combout $end
$var wire 1 p s_count[26]~87 $end
$var wire 1 q s_count[27]~88_combout $end
$var wire 1 r s_count[27]~89 $end
$var wire 1 s s_count[28]~90_combout $end
$var wire 1 t s_count[28]~91 $end
$var wire 1 u s_count[29]~92_combout $end
$var wire 1 v Equal0~7_combout $end
$var wire 1 w s_count[29]~93 $end
$var wire 1 x s_count[30]~94_combout $end
$var wire 1 y s_count[30]~95 $end
$var wire 1 z s_count[31]~96_combout $end
$var wire 1 { Equal0~8_combout $end
$var wire 1 | Equal0~9_combout $end
$var wire 1 } timerOut~3_combout $end
$var wire 1 ~ timerOut~2_combout $end
$var wire 1 !! timerOut~reg0_q $end
$var wire 1 "! s_count [31] $end
$var wire 1 #! s_count [30] $end
$var wire 1 $! s_count [29] $end
$var wire 1 %! s_count [28] $end
$var wire 1 &! s_count [27] $end
$var wire 1 '! s_count [26] $end
$var wire 1 (! s_count [25] $end
$var wire 1 )! s_count [24] $end
$var wire 1 *! s_count [23] $end
$var wire 1 +! s_count [22] $end
$var wire 1 ,! s_count [21] $end
$var wire 1 -! s_count [20] $end
$var wire 1 .! s_count [19] $end
$var wire 1 /! s_count [18] $end
$var wire 1 0! s_count [17] $end
$var wire 1 1! s_count [16] $end
$var wire 1 2! s_count [15] $end
$var wire 1 3! s_count [14] $end
$var wire 1 4! s_count [13] $end
$var wire 1 5! s_count [12] $end
$var wire 1 6! s_count [11] $end
$var wire 1 7! s_count [10] $end
$var wire 1 8! s_count [9] $end
$var wire 1 9! s_count [8] $end
$var wire 1 :! s_count [7] $end
$var wire 1 ;! s_count [6] $end
$var wire 1 <! s_count [5] $end
$var wire 1 =! s_count [4] $end
$var wire 1 >! s_count [3] $end
$var wire 1 ?! s_count [2] $end
$var wire 1 @! s_count [1] $end
$var wire 1 A! s_count [0] $end
$upscope $end
$upscope $end
$enddefinitions $end
#0
$dumpvars
0!
0"
1#
0$
0%
0&
1'
x(
1)
1*
1+
0,
0-
0.
1/
10
01
02
03
14
05
16
07
18
09
0:
1;
0<
0=
0>
1?
1@
0A
0B
0C
1D
0E
0F
0G
1H
1I
0J
0K
0L
1M
0N
0O
0P
1Q
1R
0S
0T
0U
1V
0W
0X
0Y
1Z
1[
1\
0]
0^
0_
1`
0a
0b
0c
1d
1e
0f
0g
0h
1i
0j
0k
0l
1m
1n
0o
0p
0q
1r
0s
0t
0u
1v
1w
0x
0y
0z
1{
1|
0}
0~
0!!
0A!
0@!
0?!
0>!
0=!
0<!
0;!
0:!
09!
08!
07!
06!
05!
04!
03!
02!
01!
00!
0/!
0.!
0-!
0,!
0+!
0*!
0)!
0(!
0'!
0&!
0%!
0$!
0#!
0"!
$end
#10000
1!
1-
#20000
0!
0-
#30000
1!
1-
#40000
0#
1"
0!
00
1.
0-
#50000
1!
1-
#60000
1$
0!
13
0-
1}
08
17
1~
#70000
1!
1-
1A!
1!!
1,
0?
11
1%
0/
0[
12
0|
0}
06
#80000
0$
0!
03
0-
#90000
1!
1-
0A!
1@!
1?
01
1}
04
1/
02
1[
14
12
15
1|
05
#100000
0!
0-
#110000
1!
1-
1A!
0?
11
0/
0[
04
02
0|
15
#120000
0!
0-
#130000
1!
1-
0A!
0@!
1?!
1?
01
14
19
1/
12
05
1[
09
02
15
1:
1|
0:
#140000
0!
0-
#150000
1!
1-
1A!
0?
11
0/
0[
12
0|
#160000
0!
0-
#170000
1!
1-
0A!
1@!
1?
01
0}
04
1/
02
1[
14
19
12
05
1|
09
15
1:
18
0~
0:
#180000
0!
0-
#190000
1!
1-
0@!
0?!
0!!
0,
16
0%
02
05
07
#200000
1$
0!
13
0-
1}
08
17
1~
#210000
1!
1-
1A!
1!!
1,
0?
11
1%
0/
0[
12
0|
0}
06
#220000
0$
0!
03
0-
#230000
1!
1-
0A!
1@!
1?
01
1}
04
1/
02
1[
14
12
15
1|
05
#240000
0!
0-
#250000
1!
1-
1A!
0?
11
0/
0[
04
02
0|
15
#260000
0!
0-
#270000
1!
1-
0A!
0@!
1?!
1?
01
14
19
1/
12
05
1[
09
02
15
1:
1|
0:
#280000
0"
0!
0.
0-
07
#290000
1!
1-
#300000
0!
0-
#310000
1!
1-
#320000
0!
0-
#330000
1!
1-
#340000
0!
0-
#350000
1!
1-
#360000
1"
0!
1.
0-
17
#370000
1!
1-
1A!
0?
11
0/
0[
12
0|
#380000
0!
0-
#390000
1!
1-
0A!
1@!
1?
01
0}
04
1/
02
1[
14
19
12
05
1|
09
15
1:
18
0~
0:
#400000
0!
0-
#410000
1!
1-
0@!
0?!
0!!
0,
16
0%
02
05
07
#420000
0!
0-
#430000
1!
1-
#440000
1$
0!
13
0-
1}
08
17
1~
#450000
1!
1-
1A!
1!!
1,
0?
11
1%
0/
0[
12
0|
0}
06
#460000
0!
0-
#470000
1!
1-
0A!
1@!
1?
01
1}
04
1/
02
1[
14
12
15
1|
05
#480000
0$
0!
03
0-
#490000
1!
1-
1A!
0?
11
0/
0[
04
02
0|
15
#500000
0!
0-
#510000
0"
1!
0.
1-
07
0A!
0@!
1?!
1?
01
14
19
1/
12
05
1[
09
02
15
1:
1|
0:
#520000
0!
0-
#530000
1!
1-
#540000
0!
0-
#550000
1!
1-
#560000
0!
0-
#570000
1!
1-
#580000
0!
0-
#590000
1!
1-
#600000
0!
0-
#610000
1!
1-
#620000
0!
0-
#630000
1!
1-
#640000
0!
0-
#650000
1!
1-
#660000
0!
0-
#670000
1!
1-
#680000
0!
0-
#690000
1!
1-
#700000
0!
0-
#710000
1!
1-
#720000
0!
0-
#730000
1!
1-
#740000
0!
0-
#750000
1!
1-
#760000
0!
0-
#770000
1!
1-
#780000
0!
0-
#790000
1!
1-
#800000
0!
0-
#810000
1!
1-
#820000
0!
0-
#830000
1!
1-
#840000
0!
0-
#850000
1!
1-
#860000
0!
0-
#870000
1!
1-
#880000
0!
0-
#890000
1!
1-
#900000
0!
0-
#910000
1!
1-
#920000
0!
0-
#930000
1!
1-
#940000
0!
0-
#950000
1!
1-
#960000
0!
0-
#970000
1!
1-
#980000
0!
0-
#990000
1!
1-
